powerpulse - Optimisation
…
Code

#| output: false

using JuMP
using DataFrames
using CSV
using Plots
using GLPK

#cd("./posts/optimisation")

prices_df = CSV.read("./data/austria_15_min_day_ahead_prices.csv", DataFrame)

2881×2 DataFrame
  Row │ Column1                    0
      │ String31                   Float64
──────┼────────────────────────────────────
    1 │ 2023-11-01 00:00:00+01:00   104.3
    2 │ 2023-11-01 00:15:00+01:00    77.55
    3 │ 2023-11-01 00:30:00+01:00    64.02
    4 │ 2023-11-01 00:45:00+01:00    59.19
    5 │ 2023-11-01 01:00:00+01:00    95.0
    6 │ 2023-11-01 01:15:00+01:00    65.09
    7 │ 2023-11-01 01:30:00+01:00    58.25
    8 │ 2023-11-01 01:45:00+01:00    37.72
  ⋮   │             ⋮                 ⋮
 2875 │ 2023-11-30 22:30:00+01:00   122.46
 2876 │ 2023-11-30 22:45:00+01:00   104.99
 2877 │ 2023-11-30 23:00:00+01:00   159.04
 2878 │ 2023-11-30 23:15:00+01:00   135.53
 2879 │ 2023-11-30 23:30:00+01:00   112.43
 2880 │ 2023-11-30 23:45:00+01:00    85.03
 2881 │ 2023-12-01 00:00:00+01:00   127.55
                          2866 rows omitted

Code

prices_df = rename!(prices_df, [:date, :price])

2881×2 DataFrame
  Row │ date                       price
      │ String31                   Float64
──────┼────────────────────────────────────
    1 │ 2023-11-01 00:00:00+01:00   104.3
    2 │ 2023-11-01 00:15:00+01:00    77.55
    3 │ 2023-11-01 00:30:00+01:00    64.02
    4 │ 2023-11-01 00:45:00+01:00    59.19
    5 │ 2023-11-01 01:00:00+01:00    95.0
    6 │ 2023-11-01 01:15:00+01:00    65.09
    7 │ 2023-11-01 01:30:00+01:00    58.25
    8 │ 2023-11-01 01:45:00+01:00    37.72
  ⋮   │             ⋮                 ⋮
 2875 │ 2023-11-30 22:30:00+01:00   122.46
 2876 │ 2023-11-30 22:45:00+01:00   104.99
 2877 │ 2023-11-30 23:00:00+01:00   159.04
 2878 │ 2023-11-30 23:15:00+01:00   135.53
 2879 │ 2023-11-30 23:30:00+01:00   112.43
 2880 │ 2023-11-30 23:45:00+01:00    85.03
 2881 │ 2023-12-01 00:00:00+01:00   127.55
                          2866 rows omitted
…
